
(kicad_symbol_lib (version 20211014) (generator kicad_symbol_editor)
  (symbol "692121030100" (pin_names (offset 1.016)) (in_bom yes) (on_board yes)
    (property "Reference" "J" (id 0) (at -0.1 13.74 0)
      (effects (font (size 1.27 1.27)) (justify bottom))
    )
    (property "Value" "692121030100" (id 1) (at -5.08 -15.24 0)
      (effects (font (size 1.27 1.27)) (justify bottom left))
    )
    (property "Footprint" "692121030100" (id 2) (at 0 0 0)
      (effects (font (size 1.27 1.27)) (justify bottom) hide)
    )
    (property "PINS" "9" (id 4) (at 0 0 0)
      (effects (font (size 1.27 1.27)) (justify bottom) hide)
    )
    (property "VALUE" "692121030100" (id 5) (at 0 0 0)
      (effects (font (size 1.27 1.27)) (justify bottom) hide)
    )
    (property "APPLICATION" "USB 3.0" (id 6) (at 0 0 0)
      (effects (font (size 1.27 1.27)) (justify bottom) hide)
    )
    (property "DATASHEET-URL" "https://www.we-online.com/redexpert/spec/692121030100?ae" (id 7) (at 0 0 0)
      (effects (font (size 1.27 1.27)) (justify bottom) hide)
    )
    (property "MOUNT" "THT" (id 8) (at 0 0 0)
      (effects (font (size 1.27 1.27)) (justify bottom) hide)
    )
    (property "INTERFACE-TYPE" "Type A" (id 9) (at 0 0 0)
      (effects (font (size 1.27 1.27)) (justify bottom) hide)
    )
    (property "TYPE" "Horizontal" (id 10) (at 0 0 0)
      (effects (font (size 1.27 1.27)) (justify bottom) hide)
    )
    (property "GERDER" "Receptacle" (id 11) (at 0 0 0)
      (effects (font (size 1.27 1.27)) (justify bottom) hide)
    )
    (property "WORKING-VOLTAGE" "30V(AC)" (id 12) (at 0 0 0)
      (effects (font (size 1.27 1.27)) (justify bottom) hide)
    )
    (property "PART-NUMBER" "692121030100" (id 13) (at 0 0 0)
      (effects (font (size 1.27 1.27)) (justify bottom) hide)
    )
    (property "PACKAGING" "Tape and Reel" (id 14) (at 0 0 0)
      (effects (font (size 1.27 1.27)) (justify bottom) hide)
    )
    (property "IR" "1.8A" (id 15) (at 0 0 0)
      (effects (font (size 1.27 1.27)) (justify bottom) hide)
    )
    (symbol "692121030100_0_0"
      (polyline
        (pts (xy -10.16 12.065) (xy 6.985 12.065)) (stroke (width 0.254))
      )
      (polyline
        (pts (xy 6.985 12.065) (xy 6.985 -12.065)) (stroke (width 0.254))
      )
      (polyline
        (pts (xy 6.985 -12.065) (xy -10.16 -12.065)) (stroke (width 0.254))
      )
      (polyline
        (pts (xy -10.16 -12.065) (xy -10.16 12.065)) (stroke (width 0.254))
      )
      (polyline
        (pts (xy 7.62 12.7) (xy 7.62 -12.7)) (stroke (width 0.254))
      )
      (polyline
        (pts (xy 7.62 -12.7) (xy -10.16 -12.7)) (stroke (width 0.254))
      )
      (polyline
        (pts (xy 7.62 12.7) (xy -10.16 12.7)) (stroke (width 0.254))
      )
      (text "Shield" (at 9.6 -2.5 900)
        (effects (font (size 1.27 1.27)) (justify bottom left))
      )
      (pin passive line (at -15.24 10.16 0) (length 5.08)
        (name "VBUS"
          (effects (font (size 1.016 1.016)))
        )
        (number "1"
          (effects (font (size 1.016 1.016)))
        )
      )
      (pin passive line (at -15.24 7.62 0) (length 5.08)
        (name "D-"
          (effects (font (size 1.016 1.016)))
        )
        (number "2"
          (effects (font (size 1.016 1.016)))
        )
      )
      (pin passive line (at -15.24 5.08 0) (length 5.08)
        (name "D+"
          (effects (font (size 1.016 1.016)))
        )
        (number "3"
          (effects (font (size 1.016 1.016)))
        )
      )
      (pin passive line (at -15.24 2.54 0) (length 5.08)
        (name "GND"
          (effects (font (size 1.016 1.016)))
        )
        (number "4"
          (effects (font (size 1.016 1.016)))
        )
      )
      (pin passive line (at -15.24 0.0 0) (length 5.08)
        (name "STDA_SSRX-"
          (effects (font (size 1.016 1.016)))
        )
        (number "5"
          (effects (font (size 1.016 1.016)))
        )
      )
      (pin passive line (at -15.24 -2.54 0) (length 5.08)
        (name "STDA_SSRX+"
          (effects (font (size 1.016 1.016)))
        )
        (number "6"
          (effects (font (size 1.016 1.016)))
        )
      )
      (pin passive line (at -15.24 -5.08 0) (length 5.08)
        (name "GND_DRAIN"
          (effects (font (size 1.016 1.016)))
        )
        (number "7"
          (effects (font (size 1.016 1.016)))
        )
      )
      (pin passive line (at -15.24 -7.62 0) (length 5.08)
        (name "STDA_SSTX-"
          (effects (font (size 1.016 1.016)))
        )
        (number "8"
          (effects (font (size 1.016 1.016)))
        )
      )
      (pin passive line (at -15.24 -10.16 0) (length 5.08)
        (name "STDA_SSTX+"
          (effects (font (size 1.016 1.016)))
        )
        (number "9"
          (effects (font (size 1.016 1.016)))
        )
      )
      (pin passive line (at -15.24 -12.7 0) (length 5.08)
        (name "~"
          (effects (font (size 1.016 1.016)))
        )
        (number "S1"
          (effects (font (size 1.016 1.016)))
        )
      )
      (pin passive line (at -15.24 -12.7 0) (length 5.08)
        (name "~"
          (effects (font (size 1.016 1.016)))
        )
        (number "S2"
          (effects (font (size 1.016 1.016)))
        )
      )
    )
  )
)