(footprint "differential_soder_connection_2" (version 20211014) (generator pcbnew)
  (layer "F.Cu")
  (tedit 0)
  (property "Sheetfile" "MightyPix1_PCB_Bonn.kicad_sch")
  (property "Sheetname" "")
  (property "exclude_from_bom" "")
  (attr smd exclude_from_bom)
  (fp_text reference "J3" (at -1.291 -2.5582 -90 unlocked) (layer "F.SilkS")
    (effects (font (size 1 1) (thickness 0.15)))
    (tstamp 22603950-b447-4082-a835-9a4743c0c638)
  )
  (fp_text value "Data_in_jumper" (at 0 1 unlocked) (layer "F.Fab")
    (effects (font (size 1 1) (thickness 0.15)))
    (tstamp c7550b4d-ed09-42c3-a331-a062e210b2ec)
  )
  (fp_text user "${REFERENCE}" (at 0 2.5 unlocked) (layer "F.Fab")
    (effects (font (size 1 1) (thickness 0.15)))
    (tstamp c4661ca3-a6b8-4607-8dac-be65446089e0)
  )
  (pad "1" smd rect (at 0.4 -4.8) (size 1.2 0.8) (layers "F.Cu" "F.Mask") (tstamp 23ec4e68-792f-4e58-bb23-15be315f607e))
  (pad "2" smd rect (at -1.4 -5.35) (size 1.2 0.8) (layers "F.Cu" "F.Mask") (tstamp cea7cddb-844b-4fec-baaa-580ddda1db18))
  (pad "3" smd rect (at 0.4 -3.65) (size 1.2 0.8) (layers "F.Cu" "F.Mask") (tstamp b415a78c-1548-44f7-811d-be26a021ca46))
  (pad "4" smd rect (at -1.4 -4.2) (size 1.2 0.8) (layers "F.Cu" "F.Mask") (tstamp d864a048-9481-4fd0-bbb9-c0055a973bf3))
  (pad "5" smd rect (at 0.4 -5.95) (size 1.2 0.8) (layers "F.Cu" "F.Mask") (tstamp d493b211-a551-49a5-8cb9-0dfae037ffd9))
  (pad "6" smd rect (at -1.4 -6.5) (size 1.2 0.8) (layers "F.Cu" "F.Mask") (tstamp 0921fbaa-9828-47a1-839d-781163198fc0))
)
