(footprint "MOLEX_sma_smd_73251-1350" (version 20211014) (generator pcbnew)
  (layer "F.Cu")
  (tedit 63D12322)
  (attr smd)
  (fp_text reference "REF**" (at -0.635 -4.445) (layer "F.SilkS")
    (effects (font (size 1 1) (thickness 0.15)))
    (tstamp be2027d5-5654-4a9c-9a93-35a7d3e937fe)
  )
  (fp_text value "MOLEX_sma_smd_73251-1350" (at 6.35 4.445) (layer "F.Fab")
    (effects (font (size 1 1) (thickness 0.15)))
    (tstamp b334b422-6a06-4944-8d25-4d2c4b48606c)
  )
  (fp_line (start 3.175 1.1) (end 3.175 -1.1) (layer "F.SilkS") (width 0.127) (tstamp 183ed267-11b7-4f40-9367-573f9969df69))
  (fp_line (start -1.1 -3.175) (end 1.1 -3.175) (layer "F.SilkS") (width 0.127) (tstamp 442c8f9a-57fa-4062-90d0-ee1f31a59e9e))
  (fp_line (start -3.175 1.1) (end -3.175 -1.1) (layer "F.SilkS") (width 0.127) (tstamp 94adb4a2-f783-4335-b8d2-841b43648286))
  (fp_line (start -1.1 3.175) (end 1.1 3.175) (layer "F.SilkS") (width 0.127) (tstamp ed7a893f-c38b-43e7-bf53-26729458fa09))
  (fp_line (start 3.5775 3.5775) (end -3.5775 3.5775) (layer "F.CrtYd") (width 0.05) (tstamp 1670b795-1ea4-4189-acf9-b2daab2f741b))
  (fp_line (start 3.5775 -3.5775) (end 3.5775 3.5775) (layer "F.CrtYd") (width 0.05) (tstamp 38829dc3-4529-423a-9e5b-a05b9922d197))
  (fp_line (start -3.5775 -3.5775) (end 3.5775 -3.5775) (layer "F.CrtYd") (width 0.05) (tstamp 95cb32d9-e106-4a72-a5f4-32fe25c8170c))
  (fp_line (start -3.5775 3.5775) (end -3.5775 -3.5775) (layer "F.CrtYd") (width 0.05) (tstamp e193d4e5-adb0-41b0-9f3d-22ba0a6e5c4d))
  (fp_line (start 3.175 -3.175) (end 3.175 3.175) (layer "F.Fab") (width 0.127) (tstamp 878cb4cc-d036-43c7-9d7b-cf75c373698f))
  (fp_line (start -3.175 3.175) (end -3.175 -3.175) (layer "F.Fab") (width 0.127) (tstamp 9af59b96-f23e-4eb5-affe-1f41220cc0e8))
  (fp_line (start 3.175 3.175) (end -3.175 3.175) (layer "F.Fab") (width 0.127) (tstamp c5aaffe0-00cb-4606-99c5-20e3f67bba33))
  (fp_line (start -3.175 -3.175) (end 3.175 -3.175) (layer "F.Fab") (width 0.127) (tstamp efef75a8-48d7-4943-85e9-7a4a5c443243))
  (pad "1" smd rect (at 0 0) (size 1.52 1.52) (layers "F.Cu" "F.Paste" "F.Mask") (tstamp 61d7d8b3-071d-408b-be0b-56dbbd6348fb))
  (pad "2" smd rect (at 2.375 -2.375) (size 1.905 1.905) (layers "F.Cu" "F.Paste" "F.Mask") (tstamp 01bb53aa-3f33-4c25-8199-621dd5156663))
  (pad "2" smd rect (at -2.375 -2.375) (size 1.905 1.905) (layers "F.Cu" "F.Paste" "F.Mask") (tstamp 670d2877-380a-4d51-b1c7-fb25b2e1742f))
  (pad "2" smd rect (at 2.375 2.375) (size 1.905 1.905) (layers "F.Cu" "F.Paste" "F.Mask") (tstamp a126a970-f1ff-47a8-b254-5f55463b5a2a))
  (pad "2" smd rect (at -2.375 2.375) (size 1.905 1.905) (layers "F.Cu" "F.Paste" "F.Mask") (tstamp af9965a7-a5f4-43a1-b4a9-906064109c38))
)

