
(footprint SOIC127P1030X265-16N (layer F.Cu) (tedit 6475FFA9)
  (descr "")
  (attr smd)
  (fp_text reference REF** (at -2.635 -6.162 0) (layer F.SilkS)
    (effects (font (size 1.0 1.0) (thickness 0.15)))
  )
  (fp_text value SOIC127P1030X265-16N (at 6.89 6.162 0) (layer F.Fab)
    (effects (font (size 1.0 1.0) (thickness 0.15)))
  )
  (pad 1 smd roundrect (roundrect_rratio 0.07) (at -4.64 -4.445) (size 2.06 0.6) (layers F.Cu F.Mask F.Paste))
  (pad 2 smd roundrect (roundrect_rratio 0.07) (at -4.64 -3.175) (size 2.06 0.6) (layers F.Cu F.Mask F.Paste))
  (pad 3 smd roundrect (roundrect_rratio 0.07) (at -4.64 -1.905) (size 2.06 0.6) (layers F.Cu F.Mask F.Paste))
  (pad 4 smd roundrect (roundrect_rratio 0.07) (at -4.64 -0.635) (size 2.06 0.6) (layers F.Cu F.Mask F.Paste))
  (pad 5 smd roundrect (roundrect_rratio 0.07) (at -4.64 0.635) (size 2.06 0.6) (layers F.Cu F.Mask F.Paste))
  (pad 6 smd roundrect (roundrect_rratio 0.07) (at -4.64 1.905) (size 2.06 0.6) (layers F.Cu F.Mask F.Paste))
  (pad 7 smd roundrect (roundrect_rratio 0.07) (at -4.64 3.175) (size 2.06 0.6) (layers F.Cu F.Mask F.Paste))
  (pad 8 smd roundrect (roundrect_rratio 0.07) (at -4.64 4.445) (size 2.06 0.6) (layers F.Cu F.Mask F.Paste))
  (pad 9 smd roundrect (roundrect_rratio 0.07) (at 4.64 4.445) (size 2.06 0.6) (layers F.Cu F.Mask F.Paste))
  (pad 10 smd roundrect (roundrect_rratio 0.07) (at 4.64 3.175) (size 2.06 0.6) (layers F.Cu F.Mask F.Paste))
  (pad 11 smd roundrect (roundrect_rratio 0.07) (at 4.64 1.905) (size 2.06 0.6) (layers F.Cu F.Mask F.Paste))
  (pad 12 smd roundrect (roundrect_rratio 0.07) (at 4.64 0.635) (size 2.06 0.6) (layers F.Cu F.Mask F.Paste))
  (pad 13 smd roundrect (roundrect_rratio 0.07) (at 4.64 -0.635) (size 2.06 0.6) (layers F.Cu F.Mask F.Paste))
  (pad 14 smd roundrect (roundrect_rratio 0.07) (at 4.64 -1.905) (size 2.06 0.6) (layers F.Cu F.Mask F.Paste))
  (pad 15 smd roundrect (roundrect_rratio 0.07) (at 4.64 -3.175) (size 2.06 0.6) (layers F.Cu F.Mask F.Paste))
  (pad 16 smd roundrect (roundrect_rratio 0.07) (at 4.64 -4.445) (size 2.06 0.6) (layers F.Cu F.Mask F.Paste))
  (fp_circle (center -6.3 -4.845) (end -6.2 -4.845) (layer F.SilkS) (width 0.2))
  (fp_circle (center -6.3 -4.845) (end -6.2 -4.845) (layer F.Fab) (width 0.2))
  (fp_line (start -3.75 -5.15) (end 3.75 -5.15) (layer F.Fab) (width 0.127))
  (fp_line (start -3.75 5.15) (end 3.75 5.15) (layer F.Fab) (width 0.127))
  (fp_line (start -3.75 -5.15) (end 3.75 -5.15) (layer F.SilkS) (width 0.127))
  (fp_line (start -3.75 5.15) (end 3.75 5.15) (layer F.SilkS) (width 0.127))
  (fp_line (start -3.75 -5.15) (end -3.75 5.15) (layer F.Fab) (width 0.127))
  (fp_line (start 3.75 -5.15) (end 3.75 5.15) (layer F.Fab) (width 0.127))
  (fp_line (start -5.92 -5.4) (end 5.92 -5.4) (layer F.CrtYd) (width 0.05))
  (fp_line (start -5.92 5.4) (end 5.92 5.4) (layer F.CrtYd) (width 0.05))
  (fp_line (start -5.92 -5.4) (end -5.92 5.4) (layer F.CrtYd) (width 0.05))
  (fp_line (start 5.92 -5.4) (end 5.92 5.4) (layer F.CrtYd) (width 0.05))
)