
(module SOP65P640X110-20N (layer F.Cu) (tedit 617C26F3)
  (descr "")
  (fp_text reference REF** (at -0.575 -4.262 0) (layer F.SilkS)
    (effects (font (size 1.0 1.0) (thickness 0.15)))
  )
  (fp_text value SOP65P640X110-20N (at 7.045 4.262 0) (layer F.Fab)
    (effects (font (size 1.0 1.0) (thickness 0.15)))
  )
  (pad 1 smd roundrect (at -2.885 -2.925) (roundrect_rratio 0.05) (size 1.5 0.41) (layers F.Cu F.Mask F.Paste))
  (pad 2 smd roundrect (at -2.885 -2.275) (roundrect_rratio 0.05) (size 1.5 0.41) (layers F.Cu F.Mask F.Paste))
  (pad 3 smd roundrect (at -2.885 -1.625) (roundrect_rratio 0.05) (size 1.5 0.41) (layers F.Cu F.Mask F.Paste))
  (pad 4 smd roundrect (at -2.885 -0.975) (roundrect_rratio 0.05) (size 1.5 0.41) (layers F.Cu F.Mask F.Paste))
  (pad 5 smd roundrect (at -2.885 -0.325) (roundrect_rratio 0.05) (size 1.5 0.41) (layers F.Cu F.Mask F.Paste))
  (pad 6 smd roundrect (at -2.885 0.325) (roundrect_rratio 0.05) (size 1.5 0.41) (layers F.Cu F.Mask F.Paste))
  (pad 7 smd roundrect (at -2.885 0.975) (roundrect_rratio 0.05) (size 1.5 0.41) (layers F.Cu F.Mask F.Paste))
  (pad 8 smd roundrect (at -2.885 1.625) (roundrect_rratio 0.05) (size 1.5 0.41) (layers F.Cu F.Mask F.Paste))
  (pad 9 smd roundrect (at -2.885 2.275) (roundrect_rratio 0.05) (size 1.5 0.41) (layers F.Cu F.Mask F.Paste))
  (pad 10 smd roundrect (at -2.885 2.925) (roundrect_rratio 0.05) (size 1.5 0.41) (layers F.Cu F.Mask F.Paste))
  (pad 11 smd roundrect (at 2.885 2.925) (roundrect_rratio 0.05) (size 1.5 0.41) (layers F.Cu F.Mask F.Paste))
  (pad 12 smd roundrect (at 2.885 2.275) (roundrect_rratio 0.05) (size 1.5 0.41) (layers F.Cu F.Mask F.Paste))
  (pad 13 smd roundrect (at 2.885 1.625) (roundrect_rratio 0.05) (size 1.5 0.41) (layers F.Cu F.Mask F.Paste))
  (pad 14 smd roundrect (at 2.885 0.975) (roundrect_rratio 0.05) (size 1.5 0.41) (layers F.Cu F.Mask F.Paste))
  (pad 15 smd roundrect (at 2.885 0.325) (roundrect_rratio 0.05) (size 1.5 0.41) (layers F.Cu F.Mask F.Paste))
  (pad 16 smd roundrect (at 2.885 -0.325) (roundrect_rratio 0.05) (size 1.5 0.41) (layers F.Cu F.Mask F.Paste))
  (pad 17 smd roundrect (at 2.885 -0.975) (roundrect_rratio 0.05) (size 1.5 0.41) (layers F.Cu F.Mask F.Paste))
  (pad 18 smd roundrect (at 2.885 -1.625) (roundrect_rratio 0.05) (size 1.5 0.41) (layers F.Cu F.Mask F.Paste))
  (pad 19 smd roundrect (at 2.885 -2.275) (roundrect_rratio 0.05) (size 1.5 0.41) (layers F.Cu F.Mask F.Paste))
  (pad 20 smd roundrect (at 2.885 -2.925) (roundrect_rratio 0.05) (size 1.5 0.41) (layers F.Cu F.Mask F.Paste))
  (fp_circle (center -4.385 -3.335) (end -4.285 -3.335) (layer F.SilkS) (width 0.2))
  (fp_circle (center -4.385 -3.335) (end -4.285 -3.335) (layer F.Fab) (width 0.2))
  (fp_line (start -2.25 -3.3) (end 2.25 -3.3) (layer F.Fab) (width 0.127))
  (fp_line (start -2.25 3.3) (end 2.25 3.3) (layer F.Fab) (width 0.127))
  (fp_line (start -2.25 -3.45) (end 2.25 -3.45) (layer F.SilkS) (width 0.127))
  (fp_line (start -2.25 3.45) (end 2.25 3.45) (layer F.SilkS) (width 0.127))
  (fp_line (start -2.25 -3.3) (end -2.25 3.3) (layer F.Fab) (width 0.127))
  (fp_line (start 2.25 -3.3) (end 2.25 3.3) (layer F.Fab) (width 0.127))
  (fp_line (start -3.885 -3.55) (end 3.885 -3.55) (layer F.CrtYd) (width 0.05))
  (fp_line (start -3.885 3.55) (end 3.885 3.55) (layer F.CrtYd) (width 0.05))
  (fp_line (start -3.885 -3.55) (end -3.885 3.55) (layer F.CrtYd) (width 0.05))
  (fp_line (start 3.885 -3.55) (end 3.885 3.55) (layer F.CrtYd) (width 0.05))
)