(module UniBonn (layer F.Cu) (tedit 0)
  (fp_text reference G*** (at 0 0) (layer F.SilkS) hide
    (effects (font (size 1.524 1.524) (thickness 0.3)))
  )
  (fp_text value LOGO (at 0.75 0) (layer F.SilkS) hide
    (effects (font (size 1.524 1.524) (thickness 0.3)))
  )
  (fp_poly (pts (xy 0.088183 2.714113) (xy 0.181836 2.726731) (xy 0.198437 2.729437) (xy 0.300835 2.752647)
    (xy 0.382271 2.786948) (xy 0.452926 2.837229) (xy 0.484177 2.866633) (xy 0.538196 2.928389)
    (xy 0.581494 2.996215) (xy 0.615233 3.074378) (xy 0.640573 3.167142) (xy 0.658675 3.278774)
    (xy 0.6707 3.413538) (xy 0.677809 3.5757) (xy 0.677885 3.578365) (xy 0.678199 3.780037)
    (xy 0.666504 3.953739) (xy 0.64203 4.101379) (xy 0.604009 4.224868) (xy 0.551671 4.326116)
    (xy 0.484247 4.407032) (xy 0.400967 4.469527) (xy 0.301061 4.51551) (xy 0.30025 4.515796)
    (xy 0.236272 4.536003) (xy 0.174867 4.549205) (xy 0.105176 4.557059) (xy 0.016341 4.561224)
    (xy 0 4.56165) (xy -0.077957 4.562837) (xy -0.148579 4.562666) (xy -0.203233 4.561229)
    (xy -0.230188 4.559156) (xy -0.357204 4.532192) (xy -0.464921 4.491709) (xy -0.548585 4.439662)
    (xy -0.5715 4.418876) (xy -0.621925 4.36405) (xy -0.659729 4.311946) (xy -0.689518 4.253757)
    (xy -0.715896 4.180677) (xy -0.740133 4.096358) (xy -0.753187 4.027027) (xy -0.762925 3.932959)
    (xy -0.769346 3.821193) (xy -0.772454 3.698765) (xy -0.77225 3.572713) (xy -0.770255 3.503072)
    (xy -0.44249 3.503072) (xy -0.442173 3.643047) (xy -0.440963 3.706164) (xy -0.43761 3.826071)
    (xy -0.433016 3.919448) (xy -0.426119 3.991715) (xy -0.415858 4.048291) (xy -0.401168 4.094596)
    (xy -0.380989 4.13605) (xy -0.354257 4.178072) (xy -0.346183 4.189644) (xy -0.291753 4.241119)
    (xy -0.215735 4.278008) (xy -0.125292 4.299284) (xy -0.027583 4.303919) (xy 0.070228 4.290887)
    (xy 0.155828 4.261629) (xy 0.217744 4.221048) (xy 0.267133 4.161833) (xy 0.305119 4.081229)
    (xy 0.332829 3.976477) (xy 0.351387 3.844822) (xy 0.357649 3.767073) (xy 0.36032 3.689358)
    (xy 0.359652 3.599963) (xy 0.356119 3.505866) (xy 0.350196 3.414044) (xy 0.342357 3.331473)
    (xy 0.333077 3.265131) (xy 0.322831 3.221994) (xy 0.320142 3.215591) (xy 0.284539 3.145906)
    (xy 0.257156 3.098376) (xy 0.232579 3.066306) (xy 0.205393 3.042997) (xy 0.17018 3.021753)
    (xy 0.158124 3.015252) (xy 0.107959 2.991351) (xy 0.061871 2.978163) (xy 0.006718 2.972931)
    (xy -0.04547 2.972536) (xy -0.149356 2.979175) (xy -0.229827 2.998772) (xy -0.293661 3.034395)
    (xy -0.347634 3.089112) (xy -0.369455 3.119212) (xy -0.3956 3.16689) (xy -0.4155 3.225203)
    (xy -0.42963 3.298062) (xy -0.438468 3.389382) (xy -0.44249 3.503072) (xy -0.770255 3.503072)
    (xy -0.768736 3.450077) (xy -0.761913 3.337892) (xy -0.751784 3.243198) (xy -0.739904 3.178994)
    (xy -0.697423 3.043698) (xy -0.642979 2.935757) (xy -0.573354 2.852452) (xy -0.485331 2.791062)
    (xy -0.375691 2.748869) (xy -0.241217 2.723152) (xy -0.194651 2.718161) (xy -0.086838 2.710208)
    (xy 0.003033 2.708732) (xy 0.088183 2.714113)) (layer F.Mask) (width 0.01))
  (fp_poly (pts (xy -1.744167 2.726163) (xy -1.608284 2.729711) (xy -1.49743 2.737267) (xy -1.408284 2.749682)
    (xy -1.337528 2.767807) (xy -1.281842 2.792491) (xy -1.237907 2.824584) (xy -1.202404 2.864937)
    (xy -1.172032 2.914363) (xy -1.152057 2.970626) (xy -1.13752 3.048279) (xy -1.129065 3.137129)
    (xy -1.127338 3.226984) (xy -1.132983 3.307651) (xy -1.143814 3.360599) (xy -1.181708 3.446284)
    (xy -1.234305 3.514126) (xy -1.296849 3.559595) (xy -1.364584 3.57816) (xy -1.3724 3.578365)
    (xy -1.404909 3.58656) (xy -1.412875 3.602327) (xy -1.39886 3.621463) (xy -1.368984 3.62629)
    (xy -1.327311 3.633887) (xy -1.276911 3.652847) (xy -1.262111 3.660258) (xy -1.18755 3.713794)
    (xy -1.132732 3.784628) (xy -1.096781 3.875179) (xy -1.078823 3.987869) (xy -1.077982 4.125118)
    (xy -1.080324 4.163268) (xy -1.093769 4.271073) (xy -1.11792 4.353518) (xy -1.155192 4.416083)
    (xy -1.208005 4.464252) (xy -1.215266 4.469169) (xy -1.258954 4.494113) (xy -1.308313 4.513715)
    (xy -1.36743 4.528501) (xy -1.44039 4.538998) (xy -1.531282 4.54573) (xy -1.64419 4.549224)
    (xy -1.783202 4.550005) (xy -1.8415 4.549715) (xy -1.952051 4.5487) (xy -2.056288 4.547313)
    (xy -2.148563 4.545663) (xy -2.223231 4.543858) (xy -2.274644 4.542006) (xy -2.289969 4.541088)
    (xy -2.365375 4.535105) (xy -2.365375 4.317025) (xy -2.047875 4.317025) (xy -1.797844 4.310241)
    (xy -1.693666 4.30662) (xy -1.615913 4.301824) (xy -1.559263 4.295253) (xy -1.518396 4.286306)
    (xy -1.490311 4.275531) (xy -1.438456 4.238842) (xy -1.404272 4.185546) (xy -1.386225 4.111635)
    (xy -1.382782 4.013103) (xy -1.383416 3.99627) (xy -1.391272 3.912523) (xy -1.408687 3.846967)
    (xy -1.4391 3.797309) (xy -1.485951 3.761259) (xy -1.55268 3.736526) (xy -1.642728 3.720817)
    (xy -1.759532 3.711842) (xy -1.813719 3.709651) (xy -2.047875 3.701823) (xy -2.047875 4.317025)
    (xy -2.365375 4.317025) (xy -2.365375 3.640888) (xy -2.36532 3.502467) (xy -2.048661 3.502467)
    (xy -1.814112 3.495545) (xy -1.697938 3.490526) (xy -1.611979 3.483146) (xy -1.554774 3.473249)
    (xy -1.532739 3.4656) (xy -1.477084 3.422863) (xy -1.441184 3.358146) (xy -1.424233 3.269636)
    (xy -1.422598 3.217407) (xy -1.431368 3.12376) (xy -1.456759 3.055488) (xy -1.500197 3.009913)
    (xy -1.544111 2.98944) (xy -1.578725 2.983147) (xy -1.637521 2.977225) (xy -1.712933 2.972261)
    (xy -1.797394 2.968838) (xy -1.817688 2.968322) (xy -2.039938 2.963334) (xy -2.0443 3.2329)
    (xy -2.048661 3.502467) (xy -2.36532 3.502467) (xy -2.365298 3.44743) (xy -2.365021 3.283504)
    (xy -2.364481 3.146693) (xy -2.363611 3.034579) (xy -2.362347 2.944745) (xy -2.360623 2.874773)
    (xy -2.358375 2.822247) (xy -2.355536 2.784748) (xy -2.352041 2.759859) (xy -2.347826 2.745164)
    (xy -2.342826 2.738244) (xy -2.340991 2.737255) (xy -2.318997 2.734621) (xy -2.269784 2.73211)
    (xy -2.197885 2.729842) (xy -2.10783 2.727937) (xy -2.004152 2.726515) (xy -1.908398 2.725775)
    (xy -1.744167 2.726163)) (layer F.Mask) (width 0.01))
  (fp_poly (pts (xy 2.337593 2.738328) (xy 2.484437 2.739686) (xy 2.484437 3.613516) (xy 2.484297 3.810567)
    (xy 2.483843 3.977868) (xy 2.483024 4.117614) (xy 2.48179 4.232004) (xy 2.48009 4.323235)
    (xy 2.477873 4.393503) (xy 2.47509 4.445007) (xy 2.471689 4.479944) (xy 2.46762 4.500511)
    (xy 2.463836 4.508107) (xy 2.438042 4.518492) (xy 2.388719 4.526669) (xy 2.324033 4.532361)
    (xy 2.252145 4.535289) (xy 2.181221 4.535178) (xy 2.119423 4.53175) (xy 2.074917 4.524728)
    (xy 2.065535 4.521625) (xy 2.048229 4.510905) (xy 2.029842 4.490784) (xy 2.008202 4.45745)
    (xy 1.981139 4.407091) (xy 1.946483 4.335895) (xy 1.902061 4.240051) (xy 1.889554 4.212624)
    (xy 1.844251 4.113168) (xy 1.798997 4.014018) (xy 1.75713 3.922476) (xy 1.72199 3.845843)
    (xy 1.698121 3.794025) (xy 1.625573 3.636499) (xy 1.560842 3.494537) (xy 1.504905 3.370344)
    (xy 1.458739 3.266126) (xy 1.423321 3.184088) (xy 1.399627 3.126434) (xy 1.388634 3.09537)
    (xy 1.388573 3.095126) (xy 1.375056 3.06335) (xy 1.35956 3.051188) (xy 1.355086 3.060194)
    (xy 1.351483 3.088398) (xy 1.34872 3.13758) (xy 1.346766 3.209516) (xy 1.34559 3.305983)
    (xy 1.34516 3.428761) (xy 1.345447 3.579625) (xy 1.34642 3.760354) (xy 1.34665 3.794019)
    (xy 1.351862 4.536856) (xy 1.04775 4.536856) (xy 1.04775 2.780443) (xy 1.091406 2.758078)
    (xy 1.131448 2.745987) (xy 1.195223 2.739597) (xy 1.286359 2.738567) (xy 1.297266 2.738748)
    (xy 1.370715 2.740346) (xy 1.42518 2.744699) (xy 1.465784 2.755904) (xy 1.497651 2.778055)
    (xy 1.525907 2.815248) (xy 1.555674 2.871577) (xy 1.592077 2.95114) (xy 1.608259 2.987296)
    (xy 1.669904 3.124782) (xy 1.72023 3.236865) (xy 1.760928 3.327284) (xy 1.793688 3.39978)
    (xy 1.820199 3.458095) (xy 1.842153 3.505969) (xy 1.860901 3.546415) (xy 1.89466 3.619459)
    (xy 1.931525 3.700152) (xy 1.955516 3.753241) (xy 1.99158 3.83359) (xy 2.018514 3.893497)
    (xy 2.040242 3.941643) (xy 2.06069 3.98671) (xy 2.08378 4.037379) (xy 2.102133 4.077579)
    (xy 2.129525 4.133717) (xy 2.153776 4.176571) (xy 2.170922 4.199379) (xy 2.174711 4.201384)
    (xy 2.179013 4.185466) (xy 2.182656 4.137923) (xy 2.185632 4.059075) (xy 2.187936 3.949239)
    (xy 2.18956 3.808735) (xy 2.190498 3.637882) (xy 2.19075 3.469177) (xy 2.19075 2.736971)
    (xy 2.337593 2.738328)) (layer F.Mask) (width 0.01))
  (fp_poly (pts (xy 4.225996 2.733195) (xy 4.34975 2.736197) (xy 4.34975 3.610608) (xy 4.349682 3.801137)
    (xy 4.349432 3.962237) (xy 4.348925 4.096428) (xy 4.348088 4.206229) (xy 4.346846 4.294161)
    (xy 4.345126 4.362744) (xy 4.342855 4.414498) (xy 4.339959 4.451942) (xy 4.336364 4.477598)
    (xy 4.331996 4.493985) (xy 4.326782 4.503622) (xy 4.323546 4.506944) (xy 4.295089 4.517677)
    (xy 4.243439 4.526177) (xy 4.177095 4.5321) (xy 4.104558 4.535105) (xy 4.034329 4.534847)
    (xy 3.974907 4.530985) (xy 3.934794 4.523174) (xy 3.933466 4.522681) (xy 3.918936 4.515166)
    (xy 3.904083 4.502199) (xy 3.887458 4.480979) (xy 3.867613 4.448707) (xy 3.843099 4.402584)
    (xy 3.812466 4.339809) (xy 3.774267 4.257584) (xy 3.727052 4.153108) (xy 3.669373 4.023582)
    (xy 3.634935 3.945786) (xy 3.597067 3.861264) (xy 3.552755 3.764053) (xy 3.509354 3.670242)
    (xy 3.492485 3.634277) (xy 3.459423 3.563056) (xy 3.421688 3.479945) (xy 3.381953 3.391041)
    (xy 3.342895 3.302444) (xy 3.307186 3.220249) (xy 3.277504 3.150556) (xy 3.256522 3.09946)
    (xy 3.248375 3.077823) (xy 3.233149 3.056162) (xy 3.221996 3.054068) (xy 3.217554 3.070776)
    (xy 3.213861 3.117845) (xy 3.210914 3.195542) (xy 3.208705 3.304135) (xy 3.20723 3.443891)
    (xy 3.206482 3.615079) (xy 3.20643 3.798227) (xy 3.20735 4.536856) (xy 2.903602 4.536856)
    (xy 2.908332 3.666784) (xy 2.909418 3.47726) (xy 2.91051 3.317118) (xy 2.911701 3.183794)
    (xy 2.913086 3.074721) (xy 2.914759 2.987332) (xy 2.916813 2.919062) (xy 2.919343 2.867345)
    (xy 2.922443 2.829613) (xy 2.926206 2.803301) (xy 2.930727 2.785843) (xy 2.9361 2.774672)
    (xy 2.941252 2.768358) (xy 2.95867 2.75566) (xy 2.984908 2.747309) (xy 3.026139 2.742457)
    (xy 3.088539 2.740259) (xy 3.1491 2.739845) (xy 3.234986 2.740504) (xy 3.295668 2.744786)
    (xy 3.337688 2.755882) (xy 3.36759 2.776983) (xy 3.391917 2.811279) (xy 3.417211 2.86196)
    (xy 3.422392 2.873114) (xy 3.450456 2.933726) (xy 3.475147 2.987133) (xy 3.498173 3.037077)
    (xy 3.521239 3.087296) (xy 3.546053 3.141532) (xy 3.574319 3.203527) (xy 3.607745 3.277019)
    (xy 3.648037 3.36575) (xy 3.696901 3.473461) (xy 3.756044 3.603892) (xy 3.804275 3.710276)
    (xy 3.846871 3.806052) (xy 3.883797 3.892593) (xy 3.913324 3.965554) (xy 3.933727 4.020588)
    (xy 3.943277 4.053351) (xy 3.943348 4.060197) (xy 3.941577 4.071178) (xy 3.948387 4.068388)
    (xy 3.963018 4.075729) (xy 3.981854 4.106433) (xy 3.991841 4.12982) (xy 4.012128 4.17178)
    (xy 4.032984 4.197531) (xy 4.041815 4.201384) (xy 4.047248 4.19777) (xy 4.051705 4.185204)
    (xy 4.055254 4.161094) (xy 4.057961 4.122851) (xy 4.059891 4.067886) (xy 4.061111 3.993608)
    (xy 4.061687 3.897429) (xy 4.061684 3.776759) (xy 4.06117 3.629007) (xy 4.060346 3.4747)
    (xy 4.059435 3.300808) (xy 4.058982 3.15623) (xy 4.059052 3.038332) (xy 4.059714 2.944481)
    (xy 4.061035 2.872042) (xy 4.063082 2.818383) (xy 4.065923 2.78087) (xy 4.069625 2.756868)
    (xy 4.074255 2.743746) (xy 4.079152 2.739105) (xy 4.105402 2.735208) (xy 4.153761 2.73303)
    (xy 4.214619 2.732959) (xy 4.225996 2.733195)) (layer F.Mask) (width 0.01))
  (fp_poly (pts (xy -4.909354 1.768059) (xy -4.888873 1.768289) (xy -4.837869 1.768523) (xy -4.757569 1.768757)
    (xy -4.649201 1.768993) (xy -4.513991 1.769227) (xy -4.353168 1.76946) (xy -4.167958 1.769691)
    (xy -3.959587 1.769918) (xy -3.729285 1.77014) (xy -3.478277 1.770358) (xy -3.207791 1.770568)
    (xy -2.919053 1.770771) (xy -2.613292 1.770966) (xy -2.291735 1.771152) (xy -1.955608 1.771327)
    (xy -1.606138 1.77149) (xy -1.244554 1.771642) (xy -0.872082 1.77178) (xy -0.489949 1.771903)
    (xy -0.099382 1.772011) (xy 0.067468 1.772052) (xy 4.98475 1.773208) (xy 4.98475 2.172479)
    (xy 0.007937 2.176522) (xy -4.968875 2.180566) (xy -4.968893 1.76522) (xy -4.909354 1.768059)) (layer F.Mask) (width 0.01))
  (fp_poly (pts (xy 0.781885 0.075881) (xy 0.783618 0.245729) (xy 0.785563 0.38679) (xy 0.788078 0.502227)
    (xy 0.791522 0.5952) (xy 0.796256 0.668873) (xy 0.802638 0.726407) (xy 0.811026 0.770966)
    (xy 0.821781 0.80571) (xy 0.835262 0.833803) (xy 0.851827 0.858406) (xy 0.871836 0.882681)
    (xy 0.873769 0.884902) (xy 0.935613 0.933444) (xy 1.016637 0.965341) (xy 1.108909 0.980574)
    (xy 1.204495 0.979122) (xy 1.295464 0.960968) (xy 1.373882 0.926091) (xy 1.422148 0.886248)
    (xy 1.4426 0.862226) (xy 1.459526 0.837994) (xy 1.47326 0.810409) (xy 1.484133 0.776326)
    (xy 1.49248 0.732601) (xy 1.498632 0.676092) (xy 1.502922 0.603655) (xy 1.505684 0.512145)
    (xy 1.50725 0.398419) (xy 1.507952 0.259333) (xy 1.508124 0.091743) (xy 1.508125 0.074027)
    (xy 1.508125 -0.559119) (xy 1.81163 -0.559119) (xy 1.806007 0.115818) (xy 1.804493 0.283442)
    (xy 1.802903 0.422322) (xy 1.801094 0.535661) (xy 1.79892 0.626663) (xy 1.796238 0.698534)
    (xy 1.792903 0.754478) (xy 1.78877 0.797698) (xy 1.783696 0.831401) (xy 1.777535 0.858789)
    (xy 1.771626 0.878617) (xy 1.721027 0.992625) (xy 1.65078 1.082262) (xy 1.558501 1.149974)
    (xy 1.468003 1.189727) (xy 1.417902 1.201411) (xy 1.345195 1.211409) (xy 1.259005 1.219167)
    (xy 1.168455 1.224129) (xy 1.082669 1.22574) (xy 1.010772 1.223442) (xy 0.976312 1.219673)
    (xy 0.837736 1.185542) (xy 0.724098 1.132103) (xy 0.63456 1.058701) (xy 0.568281 0.964682)
    (xy 0.530791 0.872041) (xy 0.516781 0.818326) (xy 0.505237 0.756416) (xy 0.495959 0.683037)
    (xy 0.488748 0.594913) (xy 0.483405 0.48877) (xy 0.47973 0.361333) (xy 0.477525 0.209327)
    (xy 0.47659 0.029477) (xy 0.476532 -0.019968) (xy 0.47625 -0.559119) (xy 0.775898 -0.559119)
    (xy 0.781885 0.075881)) (layer F.Mask) (width 0.01))
  (fp_poly (pts (xy 2.383966 -0.560803) (xy 2.429494 -0.559332) (xy 2.450546 -0.559119) (xy 2.527906 -0.558279)
    (xy 2.580798 -0.554997) (xy 2.61648 -0.548129) (xy 2.642208 -0.536533) (xy 2.655983 -0.526753)
    (xy 2.688532 -0.493089) (xy 2.707852 -0.459577) (xy 2.718851 -0.431455) (xy 2.740254 -0.381897)
    (xy 2.768802 -0.318308) (xy 2.796103 -0.259075) (xy 2.826674 -0.193015) (xy 2.851532 -0.138334)
    (xy 2.867982 -0.101027) (xy 2.873375 -0.087204) (xy 2.879748 -0.071232) (xy 2.897145 -0.032115)
    (xy 2.922976 0.024428) (xy 2.954654 0.092678) (xy 2.957736 0.099267) (xy 2.99196 0.173144)
    (xy 3.03522 0.267636) (xy 3.083624 0.374176) (xy 3.133276 0.484198) (xy 3.175802 0.579088)
    (xy 3.229191 0.696013) (xy 3.272257 0.784515) (xy 3.304778 0.844167) (xy 3.326527 0.874541)
    (xy 3.333535 0.878624) (xy 3.339256 0.875694) (xy 3.343943 0.865127) (xy 3.347667 0.844266)
    (xy 3.350497 0.810452) (xy 3.352504 0.761026) (xy 3.353757 0.693332) (xy 3.354326 0.60471)
    (xy 3.354281 0.492503) (xy 3.353692 0.354051) (xy 3.352629 0.186698) (xy 3.352438 0.159756)
    (xy 3.347315 -0.559119) (xy 3.635375 -0.559119) (xy 3.635375 1.148377) (xy 3.600092 1.173245)
    (xy 3.573425 1.185461) (xy 3.531272 1.193209) (xy 3.467919 1.197184) (xy 3.395128 1.198113)
    (xy 3.225447 1.198113) (xy 3.184348 1.148963) (xy 3.158229 1.114302) (xy 3.14408 1.088861)
    (xy 3.14325 1.084883) (xy 3.136807 1.065295) (xy 3.119293 1.023234) (xy 3.093429 0.965003)
    (xy 3.063875 0.901024) (xy 3.03277 0.834319) (xy 3.007385 0.778915) (xy 2.990404 0.740737)
    (xy 2.9845 0.725791) (xy 2.978175 0.709529) (xy 2.961227 0.671216) (xy 2.936692 0.617645)
    (xy 2.922588 0.587385) (xy 2.865248 0.464288) (xy 2.808372 0.340808) (xy 2.753653 0.220739)
    (xy 2.702783 0.107877) (xy 2.657454 0.006018) (xy 2.619359 -0.081043) (xy 2.59019 -0.14951)
    (xy 2.57164 -0.195588) (xy 2.565819 -0.212728) (xy 2.549642 -0.246396) (xy 2.530487 -0.252665)
    (xy 2.524708 -0.248499) (xy 2.519929 -0.236848) (xy 2.516065 -0.21504) (xy 2.513034 -0.180404)
    (xy 2.510751 -0.130266) (xy 2.509133 -0.061955) (xy 2.508097 0.027201) (xy 2.507558 0.139875)
    (xy 2.507432 0.278739) (xy 2.507637 0.446465) (xy 2.507693 0.475252) (xy 2.509152 1.198113)
    (xy 2.2225 1.198113) (xy 2.2225 0.351447) (xy 2.222247 0.157156) (xy 2.221892 -0.007605)
    (xy 2.222038 -0.145248) (xy 2.223289 -0.258185) (xy 2.22625 -0.348828) (xy 2.231525 -0.419588)
    (xy 2.239717 -0.472878) (xy 2.251431 -0.511109) (xy 2.26727 -0.536694) (xy 2.287839 -0.552044)
    (xy 2.313742 -0.55957) (xy 2.345583 -0.561686) (xy 2.383966 -0.560803)) (layer F.Mask) (width 0.01))
  (fp_poly (pts (xy 4.34975 1.198113) (xy 4.064 1.198113) (xy 4.064 -0.559119) (xy 4.34975 -0.559119)
    (xy 4.34975 1.198113)) (layer F.Mask) (width 0.01))
  (fp_poly (pts (xy 1.776116 -4.956195) (xy 1.762559 -4.920449) (xy 1.741953 -4.865376) (xy 1.718273 -4.801611)
    (xy 1.713134 -4.78771) (xy 1.685208 -4.714759) (xy 1.655035 -4.640042) (xy 1.628841 -4.57895)
    (xy 1.627312 -4.57557) (xy 1.606189 -4.527796) (xy 1.591753 -4.492651) (xy 1.5875 -4.47948)
    (xy 1.580664 -4.458857) (xy 1.561575 -4.414162) (xy 1.532361 -4.349807) (xy 1.495151 -4.270204)
    (xy 1.452072 -4.179765) (xy 1.405253 -4.082902) (xy 1.356821 -3.984028) (xy 1.308905 -3.887554)
    (xy 1.263632 -3.797894) (xy 1.223132 -3.719458) (xy 1.199095 -3.674214) (xy 1.041787 -3.395772)
    (xy 0.866692 -3.108905) (xy 0.678312 -2.8201) (xy 0.481148 -2.535844) (xy 0.2797 -2.262626)
    (xy 0.078471 -2.006932) (xy -0.11804 -1.775249) (xy -0.119849 -1.773207) (xy -0.331615 -1.539183)
    (xy -0.532291 -1.327911) (xy -0.726829 -1.134571) (xy -0.920181 -0.954343) (xy -1.1173 -0.782407)
    (xy -1.254125 -0.669302) (xy -1.652823 -0.365409) (xy -2.061197 -0.091669) (xy -2.479007 0.15178)
    (xy -2.90601 0.3648) (xy -3.341966 0.547254) (xy -3.468688 0.593948) (xy -3.580729 0.632663)
    (xy -3.703877 0.672939) (xy -3.831463 0.712791) (xy -3.956817 0.750234) (xy -4.073268 0.783282)
    (xy -4.174147 0.809951) (xy -4.252784 0.828255) (xy -4.262438 0.830194) (xy -4.322903 0.842906)
    (xy -4.377968 0.856019) (xy -4.405313 0.863581) (xy -4.435225 0.870719) (xy -4.488767 0.881499)
    (xy -4.559081 0.894724) (xy -4.639309 0.909198) (xy -4.722591 0.923725) (xy -4.802069 0.937107)
    (xy -4.870886 0.94815) (xy -4.922182 0.955656) (xy -4.949032 0.958428) (xy -4.957732 0.949762)
    (xy -4.963688 0.921302) (xy -4.967249 0.869454) (xy -4.968764 0.790626) (xy -4.968875 0.753713)
    (xy -4.968875 0.548934) (xy -4.814094 0.520278) (xy -4.729733 0.504796) (xy -4.640327 0.488609)
    (xy -4.561428 0.474527) (xy -4.54025 0.470803) (xy -4.462853 0.455283) (xy -4.34975 0.455283)
    (xy -4.341813 0.463271) (xy -4.333875 0.455283) (xy -4.341813 0.447296) (xy -4.34975 0.455283)
    (xy -4.462853 0.455283) (xy -4.409507 0.444586) (xy -4.259346 0.408858) (xy -4.096913 0.365766)
    (xy -4.019545 0.343459) (xy -3.937 0.343459) (xy -3.929063 0.351447) (xy -3.921125 0.343459)
    (xy -3.929063 0.335472) (xy -3.937 0.343459) (xy -4.019545 0.343459) (xy -3.929353 0.317455)
    (xy -3.763812 0.266071) (xy -3.607435 0.213759) (xy -3.481269 0.167736) (xy -3.429 0.167736)
    (xy -3.421063 0.175724) (xy -3.413125 0.167736) (xy -3.421063 0.159749) (xy -3.429 0.167736)
    (xy -3.481269 0.167736) (xy -3.467367 0.162665) (xy -3.350754 0.114935) (xy -3.341688 0.110893)
    (xy -3.295542 0.09045) (xy -3.232869 0.06307) (xy -3.216325 0.055912) (xy -3.159125 0.055912)
    (xy -3.151188 0.0639) (xy -3.14325 0.055912) (xy -3.151188 0.047925) (xy -3.159125 0.055912)
    (xy -3.216325 0.055912) (xy -3.166367 0.034297) (xy -3.159125 0.031183) (xy -2.844772 -0.116209)
    (xy -2.521715 -0.291629) (xy -2.192851 -0.493364) (xy -1.861075 -0.719701) (xy -1.735824 -0.811072)
    (xy -1.661223 -0.865694) (xy -1.595061 -0.912677) (xy -1.541658 -0.94907) (xy -1.505332 -0.971925)
    (xy -1.490699 -0.978459) (xy -1.479807 -0.984362) (xy -1.480344 -0.987581) (xy -1.470743 -1.002864)
    (xy -1.441687 -1.033446) (xy -1.398199 -1.074276) (xy -1.36525 -1.103333) (xy -1.312525 -1.148897)
    (xy -1.267915 -1.187659) (xy -1.237608 -1.21423) (xy -1.22894 -1.222009) (xy -1.166965 -1.278603)
    (xy -1.106901 -1.331617) (xy -1.053619 -1.376941) (xy -1.011996 -1.410465) (xy -0.986903 -1.428078)
    (xy -0.982601 -1.429748) (xy -0.969876 -1.440816) (xy -0.969924 -1.443222) (xy -0.960377 -1.464564)
    (xy -0.935117 -1.494679) (xy -0.903948 -1.523898) (xy -0.876675 -1.542553) (xy -0.866906 -1.544811)
    (xy -0.852618 -1.553256) (xy -0.852615 -1.559529) (xy -0.843481 -1.578566) (xy -0.817087 -1.610543)
    (xy -0.780601 -1.6485) (xy -0.741189 -1.685475) (xy -0.706018 -1.714509) (xy -0.682255 -1.72864)
    (xy -0.678238 -1.728881) (xy -0.671077 -1.734212) (xy -0.673333 -1.739052) (xy -0.670828 -1.758753)
    (xy -0.65273 -1.777546) (xy -0.632418 -1.78259) (xy -0.629571 -1.781056) (xy -0.625353 -1.781487)
    (xy -0.626778 -1.78357) (xy -0.625287 -1.794301) (xy -0.6109 -1.816611) (xy -0.581539 -1.853007)
    (xy -0.535126 -1.905994) (xy -0.469586 -1.978079) (xy -0.430103 -2.020869) (xy -0.387114 -2.068742)
    (xy -0.365125 -2.068742) (xy -0.357188 -2.060754) (xy -0.34925 -2.068742) (xy -0.357188 -2.076729)
    (xy -0.365125 -2.068742) (xy -0.387114 -2.068742) (xy -0.378002 -2.078888) (xy -0.317009 -2.149413)
    (xy -0.257926 -2.219891) (xy -0.240908 -2.240728) (xy -0.195662 -2.293601) (xy -0.15768 -2.332351)
    (xy -0.131512 -2.352593) (xy -0.123361 -2.354026) (xy -0.113766 -2.35335) (xy -0.117494 -2.361722)
    (xy -0.114468 -2.383672) (xy -0.093027 -2.41737) (xy -0.080333 -2.432084) (xy -0.050979 -2.466049)
    (xy -0.033731 -2.490738) (xy -0.031824 -2.496069) (xy -0.01878 -2.506599) (xy -0.007001 -2.50805)
    (xy 0.010293 -2.514564) (xy 0.009616 -2.521291) (xy 0.014113 -2.540155) (xy 0.034536 -2.573833)
    (xy 0.052158 -2.597172) (xy 0.079629 -2.631156) (xy 0.100585 -2.657396) (xy 0.119926 -2.68233)
    (xy 0.142549 -2.712397) (xy 0.150918 -2.72371) (xy 0.15875 -2.72371) (xy 0.166687 -2.715723)
    (xy 0.174625 -2.72371) (xy 0.166687 -2.731698) (xy 0.15875 -2.72371) (xy 0.150918 -2.72371)
    (xy 0.173352 -2.754033) (xy 0.217235 -2.813679) (xy 0.227432 -2.827547) (xy 0.275926 -2.89409)
    (xy 0.323603 -2.960522) (xy 0.3633 -3.01682) (xy 0.378939 -3.039542) (xy 0.410609 -3.080468)
    (xy 0.436347 -3.103077) (xy 0.44794 -3.104967) (xy 0.457771 -3.104111) (xy 0.454163 -3.112284)
    (xy 0.455058 -3.134968) (xy 0.470834 -3.166634) (xy 0.493997 -3.196891) (xy 0.517049 -3.215343)
    (xy 0.528852 -3.215835) (xy 0.536841 -3.216453) (xy 0.532395 -3.225968) (xy 0.532726 -3.252241)
    (xy 0.552191 -3.289527) (xy 0.553755 -3.291689) (xy 0.576058 -3.324029) (xy 0.587113 -3.34395)
    (xy 0.587375 -3.345282) (xy 0.595505 -3.361869) (xy 0.596016 -3.362704) (xy 0.619125 -3.362704)
    (xy 0.627062 -3.354717) (xy 0.635 -3.362704) (xy 0.627062 -3.370692) (xy 0.619125 -3.362704)
    (xy 0.596016 -3.362704) (xy 0.61633 -3.395832) (xy 0.633338 -3.421809) (xy 0.662357 -3.466791)
    (xy 0.700925 -3.52874) (xy 0.742496 -3.597085) (xy 0.759951 -3.626289) (xy 0.795605 -3.685931)
    (xy 0.825915 -3.735919) (xy 0.846707 -3.769407) (xy 0.852894 -3.778754) (xy 0.868991 -3.805512)
    (xy 0.896164 -3.856008) (xy 0.931881 -3.925115) (xy 0.973606 -4.007706) (xy 1.018807 -4.098653)
    (xy 1.064949 -4.192831) (xy 1.1095 -4.285111) (xy 1.149924 -4.370366) (xy 1.183689 -4.44347)
    (xy 1.203848 -4.488931) (xy 1.249372 -4.596087) (xy 1.281062 -4.672641) (xy 1.30175 -4.672641)
    (xy 1.309687 -4.664654) (xy 1.317625 -4.672641) (xy 1.309687 -4.680629) (xy 1.30175 -4.672641)
    (xy 1.281062 -4.672641) (xy 1.291728 -4.698405) (xy 1.329194 -4.791492) (xy 1.360051 -4.870954)
    (xy 1.382576 -4.932399) (xy 1.395048 -4.971434) (xy 1.396999 -4.981876) (xy 1.409558 -4.990378)
    (xy 1.448479 -4.996134) (xy 1.515634 -4.999316) (xy 1.595044 -5.000125) (xy 1.793089 -5.000125)
    (xy 1.776116 -4.956195)) (layer F.Mask) (width 0.01))
  (fp_poly (pts (xy -0.968375 -1.445723) (xy -0.976313 -1.437736) (xy -0.98425 -1.445723) (xy -0.976313 -1.45371)
    (xy -0.968375 -1.445723)) (layer F.Mask) (width 0.01))
  (fp_poly (pts (xy -0.85725 -1.557547) (xy -0.865188 -1.549559) (xy -0.873125 -1.557547) (xy -0.865188 -1.565534)
    (xy -0.85725 -1.557547)) (layer F.Mask) (width 0.01))
)
